ISSS624 – hand-on_ex1
…
list(listings)

[[1]]
# A tibble: 4,161 × 75
       id listing…¹ scrap…² last_…³ source name  descr…⁴ neigh…⁵ pictu…⁶ host_id
    <dbl> <chr>       <dbl> <chr>   <chr>  <chr> <chr>   <chr>   <chr>     <int>
 1  50646 https://… 2.02e13 2022-0… previ… Plea… "Fully… "The s… https:…  227796
 2  71609 https://… 2.02e13 2022-0… city … Ensu… "For 3… ""      https:…  367042
 3  71896 https://… 2.02e13 2022-0… city … B&B … "<b>Th… ""      https:…  367042
 4  71903 https://… 2.02e13 2022-0… city … Room… "Like … "Quiet… https:…  367042
 5 275344 https://… 2.02e13 2022-0… city … 15 m… "Lovel… "Bus s… https:… 1439258
 6 289234 https://… 2.02e13 2022-0… city … Book… "This … "A qui… https:…  367042
 7 294281 https://… 2.02e13 2022-0… city … 5 mi… "I hav… ""      https:… 1521514
 8 324945 https://… 2.02e13 2022-0… city … Cozy… "<b>Th… ""      https:… 1439258
 9 330089 https://… 2.02e13 2022-0… city … Cozy… "A uni… ""      https:… 1439258
10 330095 https://… 2.02e13 2022-0… city … 10 m… "Cosy,… "Near … https:… 1439258
# … with 4,151 more rows, 65 more variables: host_url <chr>, host_name <chr>,
#   host_since <chr>, host_location <chr>, host_about <chr>,
#   host_response_time <chr>, host_response_rate <chr>,
#   host_acceptance_rate <chr>, host_is_superhost <chr>,
#   host_thumbnail_url <chr>, host_picture_url <chr>, host_neighbourhood <chr>,
#   host_listings_count <int>, host_total_listings_count <int>,
#   host_verifications <chr>, host_has_profile_pic <chr>, …
…
